vless://99f86940-f3f1-4c93-9241-21eb2ec19285@172.64.168.252:80?security=none&type=ws&sni=mll-20231109.xiaohuaxan.workers.dev&path=/?ed=2048&encryption=none&headerType=none#%E2%9C%88%EF%B8%8F%E2%84%A2%E2%98%A2%EF%B8%8F%E3%8A%99%EF%B8%8FMLL-01%E3%8A%99%EF%B8%8F%E2%98%AA%EF%B8%8F%E2%84%A2%E2%9C%88%EF%B8%8F
vless://d7137707-92f3-4eaa-abea-21d0f905d066@172.64.104.112:8080?security=none&type=ws&sni=poison.xiaohuaxan.workers.dev&path=/?ed=2048&encryption=none&headerType=none#%E2%9C%88%EF%B8%8F%E2%84%A2%E2%98%A2%EF%B8%8F%E3%8A%99%EF%B8%8FMLL-02%E3%8A%99%EF%B8%8F%E2%98%AA%EF%B8%8F%E2%84%A2%E2%9C%88%EF%B8%8F
vless://d7137707-92f3-4eaa-abea-21d0f905d066@172.64.99.154:8080?security=none&type=ws&sni=poison.xiaohuaxan.workers.dev&path=/?ed=2048&encryption=none&headerType=none#%E2%9C%88%EF%B8%8F%E2%84%A2%E2%98%A2%EF%B8%8F%E3%8A%99%EF%B8%8FMLL-03%E3%8A%99%EF%B8%8F%E2%98%AA%EF%B8%8F%E2%84%A2%E2%9C%88%EF%B8%8F
vless://d7137707-92f3-4eaa-abea-21d0f905d066@172.64.170.18:8080?security=none&type=ws&sni=poison.xiaohuaxan.workers.dev&path=/?ed=2048&encryption=none&headerType=none#%E2%9C%88%EF%B8%8F%E2%84%A2%E2%98%A2%EF%B8%8F%E3%8A%99%EF%B8%8FMLL-04%E3%8A%99%EF%B8%8F%E2%98%AA%EF%B8%8F%E2%84%A2%E2%9C%88%EF%B8%8F
vless://d7137707-92f3-4eaa-abea-21d0f905d066@172.64.27.3:80?security=none&type=ws&sni=poison.xiaohuaxan.workers.dev&path=/?ed=2048&encryption=none&headerType=none#%E2%9C%88%EF%B8%8F%E2%84%A2%E2%98%A2%EF%B8%8F%E3%8A%99%EF%B8%8F%E6%9C%AC%E5%9C%B0%E4%BC%98%E9%80%89IP4-01%E3%8A%99%EF%B8%8F%E2%98%AA%EF%B8%8F%E2%84%A2%E2%9C%88%EF%B8%8F
vless://d7137707-92f3-4eaa-abea-21d0f905d066@172.64.108.220:8080?security=none&type=ws&sni=poison.xiaohuaxan.workers.dev&path=/?ed=2048&encryption=none&headerType=none#%E2%9C%88%EF%B8%8F%E2%84%A2%E2%98%A2%EF%B8%8F%E3%8A%99%EF%B8%8F%E6%9C%AC%E5%9C%B0%E4%BC%98%E9%80%89IP4-02%E3%8A%99%EF%B8%8F%E2%98%AA%EF%B8%8F%E2%84%A2%E2%9C%88%EF%B8%8F
vless://d7137707-92f3-4eaa-abea-21d0f905d066@172.64.167.57:2052?security=none&type=ws&sni=poison.xiaohuaxan.workers.dev&path=/?ed=2048&encryption=none&headerType=none#%E2%9C%88%EF%B8%8F%E2%84%A2%E2%98%A2%EF%B8%8F%E3%8A%99%EF%B8%8F%E6%9C%AC%E5%9C%B0%E4%BC%98%E9%80%89IP4-03%E3%8A%99%EF%B8%8F%E2%98%AA%EF%B8%8F%E2%84%A2%E2%9C%88%EF%B8%8F
vless://d7137707-92f3-4eaa-abea-21d0f905d066@172.64.169.238:8880?security=none&type=ws&sni=poison.xiaohuaxan.workers.dev&path=/?ed=2048&encryption=none&headerType=none#%E2%9C%88%EF%B8%8F%E2%84%A2%E2%98%A2%EF%B8%8F%E3%8A%99%EF%B8%8F%E6%9C%AC%E5%9C%B0%E4%BC%98%E9%80%89IP4-04%E3%8A%99%EF%B8%8F%E2%98%AA%EF%B8%8F%E2%84%A2%E2%9C%88%EF%B8%8F
vless://d7137707-92f3-4eaa-abea-21d0f905d066@172.64.205.102:2082?security=none&type=ws&sni=poison.xiaohuaxan.workers.dev&path=/?ed=2048&encryption=none&headerType=none#%E2%9C%88%EF%B8%8F%E2%84%A2%E2%98%A2%EF%B8%8F%E3%8A%99%EF%B8%8F%E6%9C%AC%E5%9C%B0%E4%BC%98%E9%80%89IP4-05%E3%8A%99%EF%B8%8F%E2%98%AA%EF%B8%8F%E2%84%A2%E2%9C%88%EF%B8%8F
vless://d7137707-92f3-4eaa-abea-21d0f905d066@172.64.128.233:2086?security=none&type=ws&sni=poison.xiaohuaxan.workers.dev&path=/?ed=2048&encryption=none&headerType=none#%E2%9C%88%EF%B8%8F%E2%84%A2%E2%98%A2%EF%B8%8F%E3%8A%99%EF%B8%8F%E6%9C%AC%E5%9C%B0%E4%BC%98%E9%80%89IP4-06%E3%8A%99%EF%B8%8F%E2%98%AA%EF%B8%8F%E2%84%A2%E2%9C%88%EF%B8%8F
vless://d7137707-92f3-4eaa-abea-21d0f905d066@198.41.197.77:2095?security=none&type=ws&sni=poison.xiaohuaxan.workers.dev&path=/?ed=2048&encryption=none&headerType=none#%E2%9C%88%EF%B8%8F%E2%84%A2%E2%98%A2%EF%B8%8F%E3%8A%99%EF%B8%8F%E6%9C%AC%E5%9C%B0%E4%BC%98%E9%80%89IP4-07%E3%8A%99%EF%B8%8F%E2%98%AA%EF%B8%8F%E2%84%A2%E2%9C%88%EF%B8%8F
vless://d7137707-92f3-4eaa-abea-21d0f905d066@172.64.107.83:80?security=none&type=ws&sni=poison.xiaohuaxan.workers.dev&path=/?ed=2048&encryption=none&headerType=none#%E2%9C%88%EF%B8%8F%E2%84%A2%E2%98%A2%EF%B8%8F%E3%8A%99%EF%B8%8F%E6%9C%AC%E5%9C%B0%E4%BC%98%E9%80%89IP4-08%E3%8A%99%EF%B8%8F%E2%98%AA%EF%B8%8F%E2%84%A2%E2%9C%88%EF%B8%8F
vless://d7137707-92f3-4eaa-abea-21d0f905d066@172.64.142.194:8080?security=none&type=ws&sni=poison.xiaohuaxan.workers.dev&path=/?ed=2048&encryption=none&headerType=none#%E2%9C%88%EF%B8%8F%E2%84%A2%E2%98%A2%EF%B8%8F%E3%8A%99%EF%B8%8F%E6%9C%AC%E5%9C%B0%E4%BC%98%E9%80%89IP4-09%E3%8A%99%EF%B8%8F%E2%98%AA%EF%B8%8F%E2%84%A2%E2%9C%88%EF%B8%8F
vless://d7137707-92f3-4eaa-abea-21d0f905d066@172.64.229.117:8880?security=none&type=ws&sni=poison.xiaohuaxan.workers.dev&path=/?ed=2048&encryption=none&headerType=none#%E2%9C%88%EF%B8%8F%E2%84%A2%E2%98%A2%EF%B8%8F%E3%8A%99%EF%B8%8F%E6%9C%AC%E5%9C%B0%E4%BC%98%E9%80%89IP4-10%E3%8A%99%EF%B8%8F%E2%98%AA%EF%B8%8F%E2%84%A2%E2%9C%88%EF%B8%8F
vless://d7137707-92f3-4eaa-abea-21d0f905d066@162.159.160.193:8880?security=none&type=ws&sni=poison.xiaohuaxan.workers.dev&path=/?ed=2048&encryption=none&headerType=none#%E2%9C%88%EF%B8%8F%E2%84%A2%E2%98%A2%EF%B8%8F%E3%8A%99%EF%B8%8F%E6%9C%AC%E5%9C%B0%E4%BC%98%E9%80%89IP4-11%E3%8A%99%EF%B8%8F%E2%98%AA%EF%B8%8F%E2%84%A2%E2%9C%88%EF%B8%8F
vless://d7137707-92f3-4eaa-abea-21d0f905d066@172.64.163.183:8880?security=none&type=ws&sni=poison.xiaohuaxan.workers.dev&path=/?ed=2048&encryption=none&headerType=none#%E2%9D%A4%E3%8D%BF%E2%98%AF%E4%BC%98%E9%80%89IP-01%E3%8D%BF%E2%98%AF%E2%9D%A4
vless://d7137707-92f3-4eaa-abea-21d0f905d066@172.64.97.222:2052?security=none&type=ws&sni=poison.xiaohuaxan.workers.dev&path=/?ed=2048&encryption=none&headerType=none#%E2%9D%A4%E3%8D%BF%E2%98%AF%E4%BC%98%E9%80%89IP-02%E3%8D%BF%E2%98%AF%E2%9D%A4
vless://d7137707-92f3-4eaa-abea-21d0f905d066@172.64.201.116:8080?security=none&type=ws&sni=poison.xiaohuaxan.workers.dev&path=/?ed=2048&encryption=none&headerType=none#%E2%9D%A4%E3%8D%BF%E2%98%AF%E4%BC%98%E9%80%89IP-03%E3%8D%BF%E2%98%AF%E2%9D%A4
vless://d7137707-92f3-4eaa-abea-21d0f905d066@172.64.138.93:2095?security=none&type=ws&sni=poison.xiaohuaxan.workers.dev&path=/?ed=2048&encryption=none&headerType=none#%E2%9D%A4%E3%8D%BF%E2%98%AF%E4%BC%98%E9%80%89IP-04%E3%8D%BF%E2%98%AF%E2%9D%A4
vless://d7137707-92f3-4eaa-abea-21d0f905d066@172.64.139.145:8080?security=none&type=ws&sni=poison.xiaohuaxan.workers.dev&path=/?ed=2048&encryption=none&headerType=none#%E2%9D%A4%E3%8D%BF%E2%98%AF%E4%BC%98%E9%80%89IP-05%E3%8D%BF%E2%98%AF%E2%9D%A4
vless://d7137707-92f3-4eaa-abea-21d0f905d066@172.64.29.0:2082?security=none&type=ws&sni=poison.xiaohuaxan.workers.dev&path=/?ed=2048&encryption=none&headerType=none#%E2%9D%A4%E3%8D%BF%E2%98%AF%E4%BC%98%E9%80%89IP-06%E3%8D%BF%E2%98%AF%E2%9D%A4
vless://d7137707-92f3-4eaa-abea-21d0f905d066@172.64.100.171:2082?security=none&type=ws&sni=poison.xiaohuaxan.workers.dev&path=/?ed=2048&encryption=none&headerType=none#%E2%9D%A4%E3%8D%BF%E2%98%AF%E4%BC%98%E9%80%89IP-07%E3%8D%BF%E2%98%AF%E2%9D%A4
vless://d7137707-92f3-4eaa-abea-21d0f905d066@172.64.163.48:8080?security=none&type=ws&sni=poison.xiaohuaxan.workers.dev&path=/?ed=2048&encryption=none&headerType=none#%E2%9D%A4%E3%8D%BF%E2%98%AF%E4%BC%98%E9%80%89IP-08%E3%8D%BF%E2%98%AF%E2%9D%A4
vless://d7137707-92f3-4eaa-abea-21d0f905d066@172.64.130.244:8080?security=none&type=ws&sni=poison.xiaohuaxan.workers.dev&path=/?ed=2048&encryption=none&headerType=none#%E2%9D%A4%E3%8D%BF%E2%98%AF%E4%BC%98%E9%80%89IP-09%E3%8D%BF%E2%98%AF%E2%9D%A4
vless://d7137707-92f3-4eaa-abea-21d0f905d066@104.16.4.236:8080?security=none&type=ws&sni=poison.xiaohuaxan.workers.dev&path=/?ed=2048&encryption=none&headerType=none#%E2%9D%A4%E3%8D%BF%E2%98%AF%E4%BC%98%E9%80%89IP-10%E3%8D%BF%E2%98%AF%E2%9D%A4
vless://d7137707-92f3-4eaa-abea-21d0f905d066@172.64.166.111:8080?security=none&type=ws&sni=poison.xiaohuaxan.workers.dev&path=/?ed=2048&encryption=none&headerType=none#%E2%9D%A4%E3%8D%BF%E2%98%AF%E4%BC%98%E9%80%89IP-11%E3%8D%BF%E2%98%AF%E2%9D%A4
vless://d7137707-92f3-4eaa-abea-21d0f905d066@172.64.106.53:8080?security=none&type=ws&sni=poison.xiaohuaxan.workers.dev&path=/?ed=2048&encryption=none&headerType=none#%E2%9D%A4%E3%8D%BF%E2%98%AF%E4%BC%98%E9%80%89IP-12%E3%8D%BF%E2%98%AF%E2%9D%A4
vless://d7137707-92f3-4eaa-abea-21d0f905d066@172.64.143.234:8880?security=none&type=ws&sni=poison.xiaohuaxan.workers.dev&path=/?ed=2048&encryption=none&headerType=none#%E2%9D%A4%E3%8D%BF%E2%98%AF%E4%BC%98%E9%80%89IP-13%E3%8D%BF%E2%98%AF%E2%9D%A4
vless://d7137707-92f3-4eaa-abea-21d0f905d066@172.64.130.5:2052?security=none&type=ws&sni=poison.xiaohuaxan.workers.dev&path=/?ed=2048&encryption=none&headerType=none#%E2%9D%A4%E3%8D%BF%E2%98%AF%E4%BC%98%E9%80%89IP-14%E3%8D%BF%E2%98%AF%E2%9D%A4
vless://d7137707-92f3-4eaa-abea-21d0f905d066@172.64.131.126:2082?security=none&type=ws&sni=poison.xiaohuaxan.workers.dev&path=/?ed=2048&encryption=none&headerType=none#%E2%9D%A4%E3%8D%BF%E2%98%AF%E4%BC%98%E9%80%89IP-15%E3%8D%BF%E2%98%AF%E2%9D%A4
vless://d7137707-92f3-4eaa-abea-21d0f905d066@172.64.205.103:2086?security=none&type=ws&sni=poison.xiaohuaxan.workers.dev&path=/?ed=2048&encryption=none&headerType=none#%E2%9D%A4%E3%8D%BF%E2%98%AF%E4%BC%98%E9%80%89IP-16%E3%8D%BF%E2%98%AF%E2%9D%A4
vless://d7137707-92f3-4eaa-abea-21d0f905d066@172.64.141.205:2095?security=none&type=ws&sni=poison.xiaohuaxan.workers.dev&path=/?ed=2048&encryption=none&headerType=none#%E2%9D%A4%E3%8D%BF%E2%98%AF%E4%BC%98%E9%80%89IP-17%E3%8D%BF%E2%98%AF%E2%9D%A4
vless://d7137707-92f3-4eaa-abea-21d0f905d066@172.64.28.65:8080?security=none&type=ws&sni=poison.xiaohuaxan.workers.dev&path=/?ed=2048&encryption=none&headerType=none#%E2%9D%A4%E3%8D%BF%E2%98%AF%E4%BC%98%E9%80%89IP-18%E3%8D%BF%E2%98%AF%E2%9D%A4
vless://d7137707-92f3-4eaa-abea-21d0f905d066@172.64.141.214:8080?security=none&type=ws&sni=poison.xiaohuaxan.workers.dev&path=/?ed=2048&encryption=none&headerType=none#%E2%9D%A4%E3%8D%BF%E2%98%AF%E4%BC%98%E9%80%89IP-19%E3%8D%BF%E2%98%AF%E2%9D%A4
vless://d7137707-92f3-4eaa-abea-21d0f905d066@172.64.110.54:8080?security=none&type=ws&sni=poison.xiaohuaxan.workers.dev&path=/?ed=2048&encryption=none&headerType=none#%E2%9D%A4%E3%8D%BF%E2%98%AF%E4%BC%98%E9%80%89IP-20%E3%8D%BF%E2%98%AF%E2%9D%A4
vless://d7137707-92f3-4eaa-abea-21d0f905d066@172.64.129.171:8080?security=none&type=ws&sni=poison.xiaohuaxan.workers.dev&path=/?ed=2048&encryption=none&headerType=none#%E2%9D%A4%E3%8D%BF%E2%98%AF%E4%BC%98%E9%80%89IP-21%E3%8D%BF%E2%98%AF%E2%9D%A4
vless://d7137707-92f3-4eaa-abea-21d0f905d066@172.64.132.154:8080?security=none&type=ws&sni=poison.xiaohuaxan.workers.dev&path=/?ed=2048&encryption=none&headerType=none#%E2%9D%A4%E3%8D%BF%E2%98%AF%E4%BC%98%E9%80%89IP-22%E3%8D%BF%E2%98%AF%E2%9D%A4
vless://d7137707-92f3-4eaa-abea-21d0f905d066@104.20.27.151:8080?security=none&type=ws&sni=poison.xiaohuaxan.workers.dev&path=/?ed=2048&encryption=none&headerType=none#%E2%9D%A4%E3%8D%BF%E2%98%AF%E4%BC%98%E9%80%89IP-23%E3%8D%BF%E2%98%AF%E2%9D%A4
vless://d7137707-92f3-4eaa-abea-21d0f905d066@172.64.131.41:8080?security=none&type=ws&sni=poison.xiaohuaxan.workers.dev&path=/?ed=2048&encryption=none&headerType=none#%E2%9D%A4%E3%8D%BF%E2%98%AF%E4%BC%98%E9%80%89IP-24%E3%8D%BF%E2%98%AF%E2%9D%A4
vless://d7137707-92f3-4eaa-abea-21d0f905d066@172.64.31.159:8080?security=none&type=ws&sni=poison.xiaohuaxan.workers.dev&path=/?ed=2048&encryption=none&headerType=none#%E2%9D%A4%E3%8D%BF%E2%98%AF%E4%BC%98%E9%80%89IP-25%E3%8D%BF%E2%98%AF%E2%9D%A4
vless://d7137707-92f3-4eaa-abea-21d0f905d066@172.64.99.100:8080?security=none&type=ws&sni=poison.xiaohuaxan.workers.dev&path=/?ed=2048&encryption=none&headerType=none#%E2%9D%A4%E3%8D%BF%E2%98%AF%E4%BC%98%E9%80%89IP-26%E3%8D%BF%E2%98%AF%E2%9D%A4
vless://d7137707-92f3-4eaa-abea-21d0f905d066@172.64.105.135:8080?security=none&type=ws&sni=poison.xiaohuaxan.workers.dev&path=/?ed=2048&encryption=none&headerType=none#%E2%9D%A4%E3%8D%BF%E2%98%AF%E4%BC%98%E9%80%89IP-27%E3%8D%BF%E2%98%AF%E2%9D%A4
vless://d7137707-92f3-4eaa-abea-21d0f905d066@172.64.31.75:8080?security=none&type=ws&sni=poison.xiaohuaxan.workers.dev&path=/?ed=2048&encryption=none&headerType=none#%E2%9D%A4%E3%8D%BF%E2%98%AF%E4%BC%98%E9%80%89IP-28%E3%8D%BF%E2%98%AF%E2%9D%A4
vless://d7137707-92f3-4eaa-abea-21d0f905d066@172.64.170.192:8080?security=none&type=ws&sni=poison.xiaohuaxan.workers.dev&path=/?ed=2048&encryption=none&headerType=none#%E2%9D%A4%E3%8D%BF%E2%98%AF%E4%BC%98%E9%80%89IP-29%E3%8D%BF%E2%98%AF%E2%9D%A4
vless://d7137707-92f3-4eaa-abea-21d0f905d066@172.64.166.53:8080?security=none&type=ws&sni=poison.xiaohuaxan.workers.dev&path=/?ed=2048&encryption=none&headerType=none#%E2%9D%A4%E3%8D%BF%E2%98%AF%E4%BC%98%E9%80%89IP-30%E3%8D%BF%E2%98%AF%E2%9D%A4
vless://d7137707-92f3-4eaa-abea-21d0f905d066@172.64.26.146:80?security=none&type=ws&sni=poison.xiaohuaxan.workers.dev&path=/?ed=2048&encryption=none&headerType=none#%E2%9D%A4%E3%8D%BF%E2%98%AF%E4%BC%98%E9%80%89IP-31%E3%8D%BF%E2%98%AF%E2%9D%A4
vless://d7137707-92f3-4eaa-abea-21d0f905d066@172.64.166.141:8080?security=none&type=ws&sni=poison.xiaohuaxan.workers.dev&path=/?ed=2048&encryption=none&headerType=none#%E2%9D%A4%E3%8D%BF%E2%98%AF%E4%BC%98%E9%80%89IP-32%E3%8D%BF%E2%98%AF%E2%9D%A4
vless://d7137707-92f3-4eaa-abea-21d0f905d066@172.64.173.30:2086?security=none&type=ws&sni=poison.xiaohuaxan.workers.dev&path=/?ed=2048&encryption=none&headerType=none#%E2%9D%A4%E3%8D%BF%E2%98%AF%E4%BC%98%E9%80%89IP-33%E3%8D%BF%E2%98%AF%E2%9D%A4
vmess://eyJ2IjoiMiIsInBzIjoiaGljYWlyby5jb20iLCJhZGQiOiJ2MnJheS00LnhpYW9odWF4YW4xLnJlcGwuY28iLCJwb3J0Ijo0NDMsImlkIjoiMzFlZWQ2MDUtYWMyYS00ZTRhLThkZDAtOGZmMDJiNDE4ZWQyIiwiYWlkIjowLCJzY3kiOiJhdXRvIiwibmV0Ijoid3MiLCJob3N0IjoidjJyYXktNC54aWFvaHVheGFuMS5yZXBsLmNvIiwicGF0aCI6Ii92bSIsInRscyI6InRscyJ9
vmess://eyJ2IjoiMiIsInBzIjoiaGljYWlyby5jb20iLCJhZGQiOiJWMnJheVNlbmF0b3IueGlhb2h1YXhhbjEucmVwbC5jbyIsInBvcnQiOjQ0MywiaWQiOiI5NmJjYjg0Zi0yOTlmLTRjZjctYjM0Ni0xMTcwMmVhZjVlN2EiLCJhaWQiOjAsInNjeSI6ImF1dG8iLCJuZXQiOiJ3cyIsImhvc3QiOiJWMnJheVNlbmF0b3IueGlhb2h1YXhhbjEucmVwbC5jbyIsInBhdGgiOiIvdm0iLCJ0bHMiOiJ0bHMifQ==
vmess://eyJ2IjoiMiIsInBzIjoiaGljYWlyby5jb20iLCJhZGQiOiJ2MnJheS54aWFvaHVheGFuMS5yZXBsLmNvIiwicG9ydCI6NDQzLCJpZCI6IjcxNzlmZGQ3LTVkMWMtNGVhNC1hN2M0LTNjOTMyOWIxNDY4YyIsImFpZCI6MCwic2N5IjoiYXV0byIsIm5ldCI6IndzIiwiaG9zdCI6InYycmF5LnhpYW9odWF4YW4xLnJlcGwuY28iLCJwYXRoIjoiL3ZtIiwidGxzIjoidGxzIn0=
vmess://eyJ2IjoiMiIsInBzIjoiaGljYWlyby5jb20iLCJhZGQiOiJWMnJheS0zLnhpYW9odWF4YW4xLnJlcGwuY28iLCJwb3J0Ijo0NDMsImlkIjoiY2Q4ZWZhMjMtNjA4Mi00YjI2LWJkNmMtYTlkZDA1NDdmOTE3IiwiYWlkIjowLCJzY3kiOiJhdXRvIiwibmV0Ijoid3MiLCJob3N0IjoiVjJyYXktMy54aWFvaHVheGFuMS5yZXBsLmNvIiwicGF0aCI6Ii92bSIsInRscyI6InRscyJ9
trojan://17cf8070@blank-repl.xiaohuaxan1.repl.co:443?type=tcp&security=tls&allowInsecure=1#Replit
vmess://eyJ2IjoiMiIsInBzIjoicmVwbGl0LXZtZXNzIiwiYWRkIjoidm12bHRyc3Nzby1uZ2lueC1wcm8ueGlhb2h1YXhhbjEucmVwbC5jbyIsInBvcnQiOjQ0MywiaWQiOiJjOWNlMzIwNC1kYTFmLTQ3ZDEtODNmOS0yYTY3ZjliZWUwZGYiLCJhaWQiOjAsInNjeSI6ImF1dG8iLCJuZXQiOiJ3cyIsImhvc3QiOiJ2bXZsdHJzc3NvLW5naW54LXByby54aWFvaHVheGFuMS5yZXBsLmNvIiwicGF0aCI6Ii9jOWNlMzIwNC1kYTFmLTQ3ZDEtODNmOS0yYTY3ZjliZWUwZGYtdm0iLCJ0bHMiOiJ0bHMifQ==
vless://d7137707-92f3-4eaa-abea-21d0f905d066@172.64.169.140:8880?security=none&type=ws&sni=poison.xiaohuaxan.workers.dev&path=/?ed=2048&encryption=none&headerType=none#%F0%9F%A4%A9%E2%9D%82%E2%9C%AC%E2%80%BC%EF%B8%8F%F0%9F%87%BA%F0%9F%87%B8%E7%95%99%E7%BD%AE%E6%B5%8B%E8%AF%95%E7%94%A8%E2%80%BC%EF%B8%8F%E2%9C%AC%E2%9D%82%F0%9F%A4%A9
vmess://eyJ2IjoiMiIsInBzIjoi576O5Zu977yI5Yaw5rKz5ZyI5a2Q77yJIiwiYWRkIjoiY2xvdWRmbGFyZS5iaW5naGUuZGVzaWduIiwicG9ydCI6NDQzLCJpZCI6IjY4YjYyMjBlLWNiN2UtNDZmYy1hNDc2LTNjYmY3OTg2MGM1MCIsImFpZCI6MCwic2N5IjoiYXV0byIsIm5ldCI6IndzIiwiaG9zdCI6InVzLmJpbmdoZS5kZXNpZ24iLCJwYXRoIjoiIiwidGxzIjoidGxzIn0=
vless://73e7054e-1dac-43fa-aad1-55322954de36@198.41.193.160:443?security=tls&type=ws&sni=c2c18f38.cloud-341.pages.dev&path=/?ed=2048&encryption=none&headerType=none#%E6%94%AF%E6%8C%81%E4%BC%98%E9%80%89ip